{
	"info": {
		"_postman_id": "f26dfe03-f3bc-456e-862e-d16726a869ce",
		"name": "07_Declare_owningEntity_LineOfBusiness_project_platform",
		"schema": "https://schema.getpostman.com/json/collection/v2.1.0/collection.json"
	},
	"item": [
		{
			"name": "Declare owningEntity",
			"event": [
				{
					"listen": "test",
					"script": {
						"id": "0643260b-1c9a-450e-aa72-ac2115244a97",
						"exec": [
							"pm.test(\"Status code is 200\", function () {",
							"    pm.response.to.have.status(200);",
							"});",
							""
						],
						"type": "text/javascript"
					}
				}
			],
			"request": {
				"method": "POST",
				"header": [
					{
						"key": "Content-Type",
						"value": "application/json"
					},
					{
						"key": "Accept-Encoding",
						"value": "gzip, deflate"
					}
				],
				"body": {
					"mode": "raw",
					"raw": "{\n    \"options\": [\"{{owning_entity}}\"]\n}"
				},
				"url": {
					"raw": "{{url-vid}}/vid/maintenance/category_parameter/owningEntity",
					"host": [
						"{{url-vid}}"
					],
					"path": [
						"vid",
						"maintenance",
						"category_parameter",
						"owningEntity"
					]
				}
			},
			"response": []
		},
		{
			"name": "Declare platform",
			"event": [
				{
					"listen": "test",
					"script": {
						"id": "6d0d2a8b-b756-4386-9113-d39722218bf5",
						"exec": [
							"pm.test(\"Status code is 200\", function () {",
							"    pm.response.to.have.status(200);",
							"});"
						],
						"type": "text/javascript"
					}
				}
			],
			"request": {
				"method": "POST",
				"header": [
					{
						"key": "Content-Type",
						"value": "application/json"
					}
				],
				"body": {
					"mode": "raw",
					"raw": "{\n    \"options\": [\"{{platform}}\"]\n}"
				},
				"url": {
					"raw": "{{url-vid}}/vid/maintenance/category_parameter/platform",
					"host": [
						"{{url-vid}}"
					],
					"path": [
						"vid",
						"maintenance",
						"category_parameter",
						"platform"
					]
				}
			},
			"response": []
		},
		{
			"name": "Declare lineOfBusiness",
			"event": [
				{
					"listen": "test",
					"script": {
						"id": "e177b994-db59-4b13-b003-b6fc0dda6907",
						"exec": [
							"pm.test(\"Status code is 200\", function () {",
							"    pm.response.to.have.status(200);",
							"});"
						],
						"type": "text/javascript"
					}
				}
			],
			"request": {
				"method": "POST",
				"header": [
					{
						"key": "Content-Type",
						"value": "application/json"
					}
				],
				"body": {
					"mode": "raw",
					"raw": "{\n    \"options\": [\"{{lineofbusiness}}\"]\n}"
				},
				"url": {
					"raw": "{{url-vid}}/vid/maintenance/category_parameter/lineOfBusiness",
					"host": [
						"{{url-vid}}"
					],
					"path": [
						"vid",
						"maintenance",
						"category_parameter",
						"lineOfBusiness"
					]
				}
			},
			"response": []
		},
		{
			"name": "Declare project",
			"event": [
				{
					"listen": "test",
					"script": {
						"id": "a5eb2421-a949-44f9-a8f7-786b672aede3",
						"exec": [
							"pm.test(\"Status code is 200\", function () {",
							"    pm.response.to.have.status(200);",
							"});"
						],
						"type": "text/javascript"
					}
				}
			],
			"request": {
				"method": "POST",
				"header": [
					{
						"key": "Content-Type",
						"value": "application/json"
					}
				],
				"body": {
					"mode": "raw",
					"raw": "{\n    \"options\": [\"{{project}}\"]\n}"
				},
				"url": {
					"raw": "{{url-vid}}/vid/maintenance/category_parameter/project",
					"host": [
						"{{url-vid}}"
					],
					"path": [
						"vid",
						"maintenance",
						"category_parameter",
						"project"
					]
				}
			},
			"response": []
		}
	]
}