{
	"info": {
		"_postman_id": "e77171c3-8de9-487a-ab4e-d1f10a3330b5",
		"name": "So-Monitoring",
		"schema": "https://schema.getpostman.com/json/collection/v2.1.0/collection.json"
	},
	"item": [
		{
			"name": "Process_instance_id",
			"request": {
				"method": "GET",
				"header": [
					{
						"key": "Accept",
						"value": "application/json"
					},
					{
						"key": "Authorization",
						"value": "Basic SW5mcmFQb3J0YWxDbGllbnQ6cGFzc3dvcmQxJA=="
					},
					{
						"key": "Content-Type",
						"name": "Content-Type",
						"value": "application/json",
						"type": "text"
					},
					{
						"key": "Postman-Token",
						"value": "a0fad227-17a9-4e3c-b4c9-784ecdb95a94,727fdb53-59c8-4a41-8ec9-7af96466926e,8c984a91-5993-44fe-bbc7-494d255b4ef1,6cfc8e31-d539-4470-b42d-18000bc67c66,f50c4e2e-cf60-43f7-a812-bd28ef1840ca"
					},
					{
						"key": "X-FromAppId",
						"value": "SO"
					},
					{
						"key": "X-TransactionId",
						"value": "so_monitor"
					},
					{
						"key": "cache-control",
						"value": "no-cache"
					}
				],
				"body": {
					"mode": "raw",
					"raw": ""
				},
				"url": {
					"raw": "http://so.api.simpledemo.onap.org:30224/so/monitoring/process-instance-id/{{auto_so_request_id}}",
					"protocol": "http",
					"host": [
						"so",
						"api",
						"simpledemo",
						"onap",
						"org"
					],
					"port": "30224",
					"path": [
						"so",
						"monitoring",
						"process-instance-id",
						"{{auto_so_request_id}}"
					]
				}
			},
			"response": []
		},
		{
			"name": "Single_process_Instance",
			"request": {
				"method": "GET",
				"header": [
					{
						"key": "Accept",
						"value": "application/json"
					},
					{
						"key": "Authorization",
						"value": "Basic SW5mcmFQb3J0YWxDbGllbnQ6cGFzc3dvcmQxJA=="
					},
					{
						"key": "Content-Type",
						"name": "Content-Type",
						"value": "application/json",
						"type": "text"
					},
					{
						"key": "Postman-Token",
						"value": "a0fad227-17a9-4e3c-b4c9-784ecdb95a94,727fdb53-59c8-4a41-8ec9-7af96466926e,8c984a91-5993-44fe-bbc7-494d255b4ef1,6cfc8e31-d539-4470-b42d-18000bc67c66,f50c4e2e-cf60-43f7-a812-bd28ef1840ca"
					},
					{
						"key": "X-FromAppId",
						"value": "SO"
					},
					{
						"key": "X-TransactionId",
						"value": "so_monitor"
					},
					{
						"key": "cache-control",
						"value": "no-cache"
					}
				],
				"body": {
					"mode": "raw",
					"raw": ""
				},
				"url": {
					"raw": "http://so.api.simpledemo.onap.org:30224/so/monitoring/process-instance/{{process_instance_id}}",
					"protocol": "http",
					"host": [
						"so",
						"api",
						"simpledemo",
						"onap",
						"org"
					],
					"port": "30224",
					"path": [
						"so",
						"monitoring",
						"process-instance",
						"{{process_instance_id}}"
					]
				}
			},
			"response": []
		},
		{
			"name": "Process_definition_xml_bpmn",
			"request": {
				"method": "GET",
				"header": [
					{
						"key": "Accept",
						"value": "application/json"
					},
					{
						"key": "Authorization",
						"value": "Basic SW5mcmFQb3J0YWxDbGllbnQ6cGFzc3dvcmQxJA=="
					},
					{
						"key": "Content-Type",
						"name": "Content-Type",
						"value": "application/json",
						"type": "text"
					},
					{
						"key": "Postman-Token",
						"value": "a0fad227-17a9-4e3c-b4c9-784ecdb95a94,727fdb53-59c8-4a41-8ec9-7af96466926e,8c984a91-5993-44fe-bbc7-494d255b4ef1,6cfc8e31-d539-4470-b42d-18000bc67c66,f50c4e2e-cf60-43f7-a812-bd28ef1840ca"
					},
					{
						"key": "X-FromAppId",
						"value": "SO"
					},
					{
						"key": "X-TransactionId",
						"value": "so_monitor"
					},
					{
						"key": "cache-control",
						"value": "no-cache"
					}
				],
				"body": {
					"mode": "raw",
					"raw": ""
				},
				"url": {
					"raw": "http://so.api.simpledemo.onap.org:30224/so/monitoring/process-definition/{{processDefinitionId}}",
					"protocol": "http",
					"host": [
						"so",
						"api",
						"simpledemo",
						"onap",
						"org"
					],
					"port": "30224",
					"path": [
						"so",
						"monitoring",
						"process-definition",
						"{{processDefinitionId}}"
					]
				}
			},
			"response": []
		},
		{
			"name": "Activity_instance_detail",
			"request": {
				"method": "GET",
				"header": [
					{
						"key": "Accept",
						"value": "application/json"
					},
					{
						"key": "Authorization",
						"value": "Basic SW5mcmFQb3J0YWxDbGllbnQ6cGFzc3dvcmQxJA=="
					},
					{
						"key": "Content-Type",
						"name": "Content-Type",
						"value": "application/json",
						"type": "text"
					},
					{
						"key": "Postman-Token",
						"value": "a0fad227-17a9-4e3c-b4c9-784ecdb95a94,727fdb53-59c8-4a41-8ec9-7af96466926e,8c984a91-5993-44fe-bbc7-494d255b4ef1,6cfc8e31-d539-4470-b42d-18000bc67c66,f50c4e2e-cf60-43f7-a812-bd28ef1840ca"
					},
					{
						"key": "X-FromAppId",
						"value": "SO"
					},
					{
						"key": "X-TransactionId",
						"value": "so_monitor"
					},
					{
						"key": "cache-control",
						"value": "no-cache"
					}
				],
				"body": {
					"mode": "raw",
					"raw": ""
				},
				"url": {
					"raw": "http://so.api.simpledemo.onap.org:30224/so/monitoring/activity-instance/{{process_instance_id}}",
					"protocol": "http",
					"host": [
						"so",
						"api",
						"simpledemo",
						"onap",
						"org"
					],
					"port": "30224",
					"path": [
						"so",
						"monitoring",
						"activity-instance",
						"{{process_instance_id}}"
					]
				}
			},
			"response": []
		},
		{
			"name": "Instance_Variables",
			"request": {
				"method": "GET",
				"header": [
					{
						"key": "Accept",
						"value": "application/json"
					},
					{
						"key": "Authorization",
						"value": "Basic SW5mcmFQb3J0YWxDbGllbnQ6cGFzc3dvcmQxJA=="
					},
					{
						"key": "Content-Type",
						"name": "Content-Type",
						"value": "application/json",
						"type": "text"
					},
					{
						"key": "Postman-Token",
						"value": "a0fad227-17a9-4e3c-b4c9-784ecdb95a94,727fdb53-59c8-4a41-8ec9-7af96466926e,8c984a91-5993-44fe-bbc7-494d255b4ef1,6cfc8e31-d539-4470-b42d-18000bc67c66,f50c4e2e-cf60-43f7-a812-bd28ef1840ca"
					},
					{
						"key": "X-FromAppId",
						"value": "SO"
					},
					{
						"key": "X-TransactionId",
						"value": "so_monitor"
					},
					{
						"key": "cache-control",
						"value": "no-cache"
					}
				],
				"body": {
					"mode": "raw",
					"raw": ""
				},
				"url": {
					"raw": "http://so.api.simpledemo.onap.org:30224/so/monitoring/variable-instance/{{process_instance_id}}",
					"protocol": "http",
					"host": [
						"so",
						"api",
						"simpledemo",
						"onap",
						"org"
					],
					"port": "30224",
					"path": [
						"so",
						"monitoring",
						"variable-instance",
						"{{process_instance_id}}"
					]
				}
			},
			"response": []
		},
		{
			"name": "Infra_active_request",
			"request": {
				"method": "POST",
				"header": [
					{
						"key": "Accept",
						"value": "application/json"
					},
					{
						"key": "Authorization",
						"value": "Basic SW5mcmFQb3J0YWxDbGllbnQ6cGFzc3dvcmQxJA=="
					},
					{
						"key": "Content-Type",
						"name": "Content-Type",
						"value": "application/json",
						"type": "text"
					},
					{
						"key": "Postman-Token",
						"value": "a0fad227-17a9-4e3c-b4c9-784ecdb95a94,727fdb53-59c8-4a41-8ec9-7af96466926e,8c984a91-5993-44fe-bbc7-494d255b4ef1,6cfc8e31-d539-4470-b42d-18000bc67c66,f50c4e2e-cf60-43f7-a812-bd28ef1840ca"
					},
					{
						"key": "X-FromAppId",
						"value": "SO"
					},
					{
						"key": "X-TransactionId",
						"value": "so_monitor"
					},
					{
						"key": "cache-control",
						"value": "no-cache"
					}
				],
				"body": {
					"mode": "raw",
					"raw": "{\r\n  \"additionalProp1\": \"string\",\r\n  \"additionalProp2\": \"string\",\r\n  \"additionalProp3\": \"string\"\r\n}"
				},
				"url": {
					"raw": "http://so.api.simpledemo.onap.org:30224/so/monitoring/v1/search?from=1552172400000&to=1552604400000",
					"protocol": "http",
					"host": [
						"so",
						"api",
						"simpledemo",
						"onap",
						"org"
					],
					"port": "30224",
					"path": [
						"so",
						"monitoring",
						"v1",
						"search"
					],
					"query": [
						{
							"key": "from",
							"value": "1552172400000",
							"description": "date time in milisec from"
						},
						{
							"key": "to",
							"value": "1552604400000",
							"description": "date time in milisec to"
						}
					]
				}
			},
			"response": []
		}
	]
}